{
    "type": "minecraft:block",
    "pools": [
      {
        "rolls": 1.0,
        "bonus_rolls": 0.0,
        "entries": [
          {
            "type": "minecraft:alternatives",
            "children": [
              {
                "type": "minecraft:item",
                "conditions": [
                  {
                    "condition": "minecraft:block_state_property",
                    "block": "elysium:cocoa_crop",
                    "properties": {
                      "age": "5"
                    }
                  }
                ],
                "name": "minecraft:cocoa_beans"
              }
            ]
          }
        ]
      }
    ],
    "functions": [
      {
        "function": "minecraft:explosion_decay"
      }
    ]
  }
