{
    "variants": {
        "age=0": {"model": "elysium:block/bamboo_stage0"},
        "age=1": {"model": "elysium:block/bamboo_stage1"},
        "age=2": {"model": "elysium:block/bamboo_stage2"},
        "age=3": {"model": "elysium:block/bamboo_stage3"},
        "age=4": {"model": "elysium:block/bamboo_stage4"},
        "age=5": {"model": "elysium:block/bamboo_stage5"}
    }
}
