{
    "variants": {
        "age=0": {"model": "elysium:block/melon_stage0"},
        "age=1": {"model": "elysium:block/melon_stage1"},
        "age=2": {"model": "elysium:block/melon_stage2"},
        "age=3": {"model": "elysium:block/melon_stage3"}
    }
}
