{
  "required": true,
  "minVersion": "0.8",
  "package": "com.enderzombi102.elysium.mixin",
  "plugin": "com.enderzombi102.elysium.util.MixinPlugin",
  "compatibilityLevel": "JAVA_17",
  "setSourceFile": true,
  "mixins": [
    "apoli.BiEntityConditionsMixin",
    "apoli.EntityConditionsMixin",
    "arrow.BambooArrowItemMixin",
    "arrow.BoneArrowItemMixin",
    "arrow.ChorusArrowItemMixin",
    "arrow.CobwebArrowItemMixin",
    "arrow.CopperArrowItemMixin",
    "arrow.DiamondArrowItemMixin",
    "arrow.EchoArrowItemMixin",
    "arrow.EnderArrowItemMixin",
    "arrow.GoldArrowItemMixin",
    "arrow.IronArrowItemMixin",
    "arrow.NetheriteArrowItemMixin",
    "arrow.NetherQuartzArrowItemMixin",
    "arrow.ObsidianArrowItemMixin",
    "arrow.PrismarineArrowItemMixin",
    "arrow.SlimeArrowItemMixin",
    "arrow.SoulArrowItemMixin",
    "arrow.TntArrowItemMixin",
    "arrow.WoodArrowItemMixin",
    "artifacts.EnchantamentHelperMixin",
    "artifacts.FeralClawsItemMixin",
    "artifacts.RunningShoesItemMixin",
    "chat.MeCommandMixin",
    "chat.MessageCommandMixin",
    "chat.PlayerManagerMixin",
    "chat.ServerCommandSourceMixin",
    "chat.TellRawCommandMixin",
    "chat.VanishAPIMixin",
    "config.PlayerManagerMixin",
    "experience.AnvilScreenHandlerMixin",
    "experience.ServerEntityManagerMixin",
    "falling.FallingBlockMixin",
    "falling.PointedDripstoneBlockMixin",
    "goml.AngelicAuraAugmentBlockMixin",
    "goml.ClaimAnchorBlockEntityMixin",
    "goml.ClaimAnchorBlockItemMixin",
    "goml.ClaimAnchorBlockMixin",
    "goml.ClaimMixin",
    "goml.ClaimUtilsMixin",
    "goml.EventHandlersMixin",
    "goml.PersistentProjectileEntityMixin",
    "goml.ProjectileEntityMixin",
    "goml.SpellProjectileMixin",
    "goml.UpgradeKitItemMixin",
    "log.AbstractDecorationEntityMixin",
    "log.ArmorStandEntityMixin",
    "log.ItemFrameEntityMixin",
    "other.ArmorItemMixin",
    "other.attackeventMixin",
    "other.BanCommandMixin",
    "other.BoozeItemMixin",
    "other.ChickenEntityMixin",
    "other.ComposterBlockMixin",
    "other.CookingPotBlockEntityMixin",
    "other.CustomArmorMixin",
    "other.DrinkBlockItemMixin",
    "other.DyeItemMixin",
    "other.ExtendedArmorItemMixin",
    "other.ExtendedArmorMaterialMixin",
    "other.FoodBlockItemMixin",
    "other.GlassBottleItemMixin",
    "other.GOMLBlocksMixin",
    "other.ItemInitMixin",
    "other.ItemPhysicServerMixin",
    "other.JoustingItemMixin",
    "other.JuiceItemMixin",
    "other.LavaFluidMixin",
    "other.LivingEntityMixin",
    "other.MedievalShieldItemMixin",
    "other.MedievalWeaponItemMixin",
    "other.MilkBottleItemMixin",
    "other.MiningToolItemMixin",
    "other.MobSpawnerLogicMixin",
    "other.ModBowItemMixin",
    "other.ModItemTierMixin",
    "other.NetherPortalBlockMixin",
    "other.PlayerEntityMixin",
    "other.PlayerManagerMixin",
    "other.PowerHolderComponentImplMixin",
    "other.ServerLoginNetworkHandlerAccessor",
    "other.SheepEntityMixin",
    "other.ShowcaseMixin",
    "other.SkilletItemMixin",
    "other.SpellEngineFabricModMixin",
    "other.StaffItemMixin",
    "other.StatusEffectUtilMixin",
    "other.StoveBlockEntityMixin",
    "other.SweetsItemMixin",
    "other.SwordItemMixin",
    "other.TagsMixin",
    "other.TargetDummyEntityMixin",
    "other.ToolItemMixin",
    "other.ToolMaterialsMixin",
    "other.WeaponTypeMixin",
    "other.WizardArmorMixin",
    "other.WolfEntityMixin",
    "playerlist.ListCommandMixin",
    "playerlist.PlayerListHudAccessor",
    "playerlist.PlayerListHudMixin",
    "potion.AdvancedBrewingStandContainerMixin",
    "potion.EventsMixin",
    "power.BrewingStandPotionSlotMixin",
    "power.CraftingInventoryAccessor",
    "power.CraftingScreenHandlerAccessor",
    "power.CraftingScreenHandlerMixin",
    "power.HungerManagerMixin",
    "power.ItemMixin",
    "power.ItemStackMixin",
    "power.LingeringItemMixin",
    "power.MiningToolItemMixin",
    "power.PlayerScreenHandlerAccessor",
    "power.PotionItemMixin",
    "power.RecipeUnlockerMixin",
    "rei.DefaultClientPluginMixin",
    "spawnblock.OceanRuinGeneratorMixin",
    "spawnblock.SpawnHelperMixin",
    "spawnblock.StructureTemplateMixin",
    "supplementaries.CrossbowItemsMixin",
    "supplementaries.MedievalBowItemMixin",
    "supplementaries.ModBowItemMixin"
  ],
  "client": [
    "config.ClientWorldMixin",
    "other.GameRendererMixin",
    "other.LivingEntityRendererMixin",
    "other.VideoScreenMixin",
    "other.WeaponMasterScreenMixin",
    "other.WindowMixin"
  ],
  "server": [
    "goml.ClaimCommandMixin"
  ],
  "injectors": {
    "defaultRequire": 1
  }
}
