minecraft:leather_helmet,1;0,240;0
minecraft:leather_chestplate,3;0,240;0
minecraft:leather_leggings,2;0,240;0
minecraft:leather_boots,1;0,240;0
elysium:maglia_rossa_lunga,2;0,60;0
elysium:maglia_verde_lunga_alt,2;0,60;0
elysium:maglia_marrone_lunga_alt,2;0,60;0
elysium:maglia_acqua_corta_alt,2;0,60;0
elysium:maglia_viola_corta,2;0,60;0
elysium:maglia_blu_lunga_alt,2;0,60;0
elysium:pantalone_viola,1;0,60;0
elysium:maglia_marrone_corta,2;0,60;0
elysium:maglia_verde_corta,2;0,60;0
elysium:maglia_blu_lunga,2;0,60;0
elysium:stracci,2;0,60;0
elysium:cappello,0;0,60;0
elysium:maglia_marrone_lunga,2;0,60;0
elysium:maglia_blu_corta,2;0,60;0
elysium:pantalone_blu,1;0,60;0
elysium:maglia_blu_corta_alt,2;0,60;0
elysium:bandana,0;0,60;0
elysium:maglia_lunga,2;0,60;0
elysium:pantalone_rosso,1;0,60;0
elysium:stivali,0;0,60;0
elysium:maglia_acqua_corta,2;0,60;0
elysium:maglia_rossa_lunga_alt,2;0,60;0
elysium:maglia_rossa_corta,2;0,60;0
elysium:pantalone_acqua,1;0,60;0
elysium:maglia_verde_corta_alt,2;0,60;0
elysium:maglia_viola_lunga_alt,2;0,60;0
elysium:maglia_corta,2;0,60;0
elysium:maglia_verde_lunga,2;0,60;0
elysium:maglia_marrone_corta_alt,2;0,60;0
elysium:pantalone_verde,1;0,60;0
elysium:maglia_acqua_lunga_alt,2;0,60;0
elysium:maglia_acqua_lunga,2;0,60;0
elysium:pantalone_marrone,1;0,60;0
elysium:maglia_viola_lunga,2;0,60;0
elysium:maglia_rossa_corta_alt,2;0,60;0
elysium:maglia_viola_corta_alt,2;0,60;0
elysium:pantalone,1;0,60;0
immersive_armors:robe_helmet,1;0,240;0
immersive_armors:robe_chestplate,3;0,240;0
immersive_armors:robe_leggings,2;0,240;0
immersive_armors:robe_boots,1;0,240;0
immersive_armors:wooden_helmet,2;0,240;0
immersive_armors:wooden_chestplate,5;0,240;0
immersive_armors:wooden_leggings,3;0,240;0
immersive_armors:wooden_boots,2;0,240;0
magistuarmory:chainmail_helmet,3;0,480;0
magistuarmory:chainmail_chestplate,6;0,480;0
magistuarmory:chainmail_leggings,4;0,480;0
magistuarmory:chainmail_boots,3;0,480;0
magistuarmory:coif,1;0,120;0
magistuarmory:gambeson_chestplate,3;0,120;0
magistuarmory:pantyhose,2;0,120;0
magistuarmory:gambeson_boots,1;0,120;0
magistuarmory:brigandine_chestplate,5;0,240;0
magistuarmory:cuirassier_helmet,4;0,480;0
magistuarmory:cuirassier_chestplate,7;0,480;0
magistuarmory:cuirassier_leggings,5;0,480;0
magistuarmory:cuirassier_boots,4;0,480;0
paladins:priest_robe_head,1;0,120;0
paladins:priest_robe_chest,3;0,120;0
paladins:priest_robe_legs,2;0,120;0
paladins:priest_robe_feet,1;0,120;0
paladins:prior_robe_head,3;0,480;0
paladins:prior_robe_chest,6;0,480;0
paladins:prior_robe_legs,4;0,480;0
paladins:prior_robe_feet,3;0,480;0
wizards:wizard_robe_head,2;0,240;0
wizards:wizard_robe_chest,5;0,240;0
wizards:wizard_robe_legs,3;0,240;0
wizards:wizard_robe_feet,2;0,240;0
wizards:arcane_robe_head,3;0,480;0
wizards:arcane_robe_chest,6;0,480;0
wizards:arcane_robe_legs,4;0,480;0
wizards:arcane_robe_feet,3;0,480;0
wizards:fire_robe_head,3;0,480;0
wizards:fire_robe_chest,6;0,480;0
wizards:fire_robe_legs,4;0,480;0
wizards:fire_robe_feet,3;0,480;0
wizards:frost_robe_head,3;0,480;0
wizards:frost_robe_chest,6;0,480;0
wizards:frost_robe_legs,4;0,480;0
wizards:frost_robe_feet,3;0,480;0
minecraft:iron_helmet,4;0,480;0
minecraft:iron_chestplate,7;0,480;0
minecraft:iron_leggings,5;0,480;0
minecraft:iron_boots,4;0,480;0
minecraft:chainmail_helmet,4;0,480;0
minecraft:chainmail_chestplate,7;0,480;0
minecraft:chainmail_leggings,5;0,480;0
minecraft:chainmail_boots,4;0,480;0
immersive_armors:steampunk_helmet,1;0
